StartFontMetrics 4.1
FontName Heineken
FullName Heineken
Notice Copyright Freddy Heineken, brought to you by Shamrock, send me a present @ P.O.Box 2951,  1000 CZ Amsterdam, NL
EncodingScheme FontSpecific
FamilyName Heineken
Weight Regular
Version Macromedia Fontographer 4.1.5 06 12 2001
Characters 97
ItalicAngle 0.0
Ascender 774
Descender -250
UnderlineThickness 20
UnderlinePosition -133
IsFixedPitch false
FontBBox -100 -227 936 774
StartCharMetrics 258
C 0 ; WX 500 ; N .notdef ; B 63 0 438 750 ;
C 1 ; WX 500 ; N .notdef ; B 63 0 438 750 ;
C 2 ; WX 500 ; N .notdef ; B 63 0 438 750 ;
C 3 ; WX 500 ; N .notdef ; B 63 0 438 750 ;
C 4 ; WX 500 ; N .notdef ; B 63 0 438 750 ;
C 5 ; WX 500 ; N .notdef ; B 63 0 438 750 ;
C 6 ; WX 500 ; N .notdef ; B 63 0 438 750 ;
C 7 ; WX 500 ; N .notdef ; B 63 0 438 750 ;
C 8 ; WX 500 ; N .notdef ; B 63 0 438 750 ;
C 9 ; WX 500 ; N .notdef ; B 63 0 438 750 ;
C 10 ; WX 500 ; N .notdef ; B 63 0 438 750 ;
C 11 ; WX 500 ; N .notdef ; B 63 0 438 750 ;
C 12 ; WX 500 ; N .notdef ; B 63 0 438 750 ;
C 13 ; WX 500 ; N .notdef ; B 63 0 438 750 ;
C 14 ; WX 500 ; N .notdef ; B 63 0 438 750 ;
C 15 ; WX 500 ; N .notdef ; B 63 0 438 750 ;
C 16 ; WX 500 ; N .notdef ; B 63 0 438 750 ;
C 17 ; WX 500 ; N .notdef ; B 63 0 438 750 ;
C 18 ; WX 500 ; N .notdef ; B 63 0 438 750 ;
C 19 ; WX 500 ; N .notdef ; B 63 0 438 750 ;
C 20 ; WX 500 ; N .notdef ; B 63 0 438 750 ;
C 21 ; WX 500 ; N .notdef ; B 63 0 438 750 ;
C 22 ; WX 500 ; N .notdef ; B 63 0 438 750 ;
C 23 ; WX 500 ; N .notdef ; B 63 0 438 750 ;
C 24 ; WX 500 ; N .notdef ; B 63 0 438 750 ;
C 25 ; WX 500 ; N .notdef ; B 63 0 438 750 ;
C 26 ; WX 500 ; N .notdef ; B 63 0 438 750 ;
C 27 ; WX 500 ; N .notdef ; B 63 0 438 750 ;
C 28 ; WX 500 ; N .notdef ; B 63 0 438 750 ;
C 29 ; WX 500 ; N .notdef ; B 63 0 438 750 ;
C 30 ; WX 500 ; N .notdef ; B 63 0 438 750 ;
C 31 ; WX 500 ; N .notdef ; B 63 0 438 750 ;
C 32 ; WX 342 ; N space ; B 72 -14 252 706 ;
C 33 ; WX 339 ; N exclam ; B 72 -14 252 706 ;
C 34 ; WX 361 ; N quotedbl ; B 58 502 287 727 ;
C 35 ; WX 500 ; N .notdef ; B 63 0 438 750 ;
C 36 ; WX 500 ; N .notdef ; B 63 0 438 750 ;
C 37 ; WX 500 ; N .notdef ; B 63 0 438 750 ;
C 38 ; WX 500 ; N .notdef ; B 63 0 438 750 ;
C 39 ; WX 224 ; N quotesingle ; B 65 504 158 727 ;
C 40 ; WX 500 ; N .notdef ; B 63 0 438 750 ;
C 41 ; WX 500 ; N .notdef ; B 63 0 438 750 ;
C 42 ; WX 500 ; N .notdef ; B 63 0 438 750 ;
C 43 ; WX 500 ; N .notdef ; B 63 0 438 750 ;
C 44 ; WX 314 ; N comma ; B 68 -67 225 142 ;
C 45 ; WX 395 ; N hyphen ; B 31 213 363 307 ;
C 46 ; WX 274 ; N period ; B 57 -14 213 142 ;
C 47 ; WX 500 ; N .notdef ; B 63 0 438 750 ;
C 48 ; WX 500 ; N .notdef ; B 63 0 438 750 ;
C 49 ; WX 500 ; N .notdef ; B 63 0 438 750 ;
C 50 ; WX 500 ; N .notdef ; B 63 0 438 750 ;
C 51 ; WX 500 ; N .notdef ; B 63 0 438 750 ;
C 52 ; WX 500 ; N .notdef ; B 63 0 438 750 ;
C 53 ; WX 500 ; N .notdef ; B 63 0 438 750 ;
C 54 ; WX 500 ; N .notdef ; B 63 0 438 750 ;
C 55 ; WX 500 ; N .notdef ; B 63 0 438 750 ;
C 56 ; WX 500 ; N .notdef ; B 63 0 438 750 ;
C 57 ; WX 500 ; N .notdef ; B 63 0 438 750 ;
C 58 ; WX 281 ; N colon ; B 57 -14 213 491 ;
C 59 ; WX 270 ; N semicolon ; B 47 -67 205 491 ;
C 60 ; WX 500 ; N .notdef ; B 63 0 438 750 ;
C 61 ; WX 500 ; N .notdef ; B 63 0 438 750 ;
C 62 ; WX 500 ; N .notdef ; B 63 0 438 750 ;
C 63 ; WX 483 ; N question ; B 25 -14 459 706 ;
C 64 ; WX 966 ; N at ; B 25 -227 936 699 ;
C 65 ; WX 612 ; N A ; B -18 -4 630 708 ;
C 66 ; WX 597 ; N B ; B 32 -4 587 704 ;
C 67 ; WX 550 ; N C ; B 16 -17 535 719 ;
C 68 ; WX 613 ; N D ; B 29 -2 604 708 ;
C 69 ; WX 553 ; N E ; B 32 -4 549 705 ;
C 70 ; WX 505 ; N F ; B 27 -4 527 708 ;
C 71 ; WX 602 ; N G ; B 16 -20 571 721 ;
C 72 ; WX 675 ; N H ; B 26 -3 652 712 ;
C 73 ; WX 368 ; N I ; B 40 -2 330 712 ;
C 74 ; WX 383 ; N J ; B -50 -149 333 714 ;
C 75 ; WX 648 ; N K ; B 40 -3 662 718 ;
C 76 ; WX 527 ; N L ; B 32 -4 544 713 ;
C 77 ; WX 735 ; N M ; B 31 -5 715 713 ;
C 78 ; WX 646 ; N N ; B 39 -3 613 715 ;
C 79 ; WX 618 ; N O ; B 26 -18 597 725 ;
C 80 ; WX 567 ; N P ; B 31 -3 576 714 ;
C 81 ; WX 624 ; N Q ; B 25 -177 597 736 ;
C 82 ; WX 627 ; N R ; B 46 -4 635 715 ;
C 83 ; WX 534 ; N S ; B 53 -14 512 720 ;
C 84 ; WX 540 ; N T ; B -22 -4 555 714 ;
C 85 ; WX 618 ; N U ; B 35 -12 588 717 ;
C 86 ; WX 563 ; N V ; B -17 -2 575 718 ;
C 87 ; WX 776 ; N W ; B -25 -8 801 718 ;
C 88 ; WX 621 ; N X ; B 10 -5 610 714 ;
C 89 ; WX 575 ; N Y ; B -14 -5 594 712 ;
C 90 ; WX 569 ; N Z ; B 23 -7 546 715 ;
C 91 ; WX 500 ; N .notdef ; B 63 0 438 750 ;
C 92 ; WX 500 ; N .notdef ; B 63 0 438 750 ;
C 93 ; WX 500 ; N .notdef ; B 63 0 438 750 ;
C 94 ; WX 539 ; N asciicircum ; B 137 502 397 643 ;
C 95 ; WX 421 ; N underscore ; B -13 -162 438 -102 ;
C 96 ; WX 507 ; N grave ; B 137 508 326 664 ;
C 97 ; WX 518 ; N a ; B 17 -11 520 498 ;
C 98 ; WX 535 ; N b ; B 14 -14 527 702 ;
C 99 ; WX 472 ; N c ; B 12 -13 457 503 ;
C 100 ; WX 546 ; N d ; B 13 -13 537 699 ;
C 101 ; WX 490 ; N e ; B 14 -17 477 493 ;
C 102 ; WX 363 ; N f ; B 24 -5 435 707 ;
C 103 ; WX 503 ; N g ; B 20 -225 486 588 ;
C 104 ; WX 575 ; N h ; B 17 -9 576 700 ;
C 105 ; WX 299 ; N i ; B 17 -4 287 702 ;
C 106 ; WX 277 ; N j ; B -100 -219 233 702 ;
C 107 ; WX 548 ; N k ; B 18 -5 548 708 ;
C 108 ; WX 318 ; N l ; B 27 -4 294 705 ;
C 109 ; WX 836 ; N m ; B 20 -16 838 482 ;
C 110 ; WX 582 ; N n ; B 24 -20 584 487 ;
C 111 ; WX 528 ; N o ; B 12 -11 515 496 ;
C 112 ; WX 534 ; N p ; B 5 -212 527 483 ;
C 113 ; WX 531 ; N q ; B 9 -213 524 481 ;
C 114 ; WX 445 ; N r ; B 22 -3 454 494 ;
C 115 ; WX 437 ; N s ; B 17 -6 423 493 ;
C 116 ; WX 315 ; N t ; B 20 -10 310 638 ;
C 117 ; WX 551 ; N u ; B 9 -10 554 484 ;
C 118 ; WX 508 ; N v ; B -9 -3 518 482 ;
C 119 ; WX 746 ; N w ; B -17 -5 757 484 ;
C 120 ; WX 553 ; N x ; B 13 -2 533 482 ;
C 121 ; WX 521 ; N y ; B 11 -201 543 484 ;
C 122 ; WX 486 ; N z ; B 14 -3 463 480 ;
C 123 ; WX 500 ; N .notdef ; B 63 0 438 750 ;
C 124 ; WX 500 ; N .notdef ; B 63 0 438 750 ;
C 125 ; WX 500 ; N .notdef ; B 63 0 438 750 ;
C 126 ; WX 500 ; N .notdef ; B 63 0 438 750 ;
C 127 ; WX 500 ; N .notdef ; B 63 0 438 750 ;
C 128 ; WX 500 ; N .notdef ; B 63 0 438 750 ;
C 129 ; WX 500 ; N .notdef ; B 63 0 438 750 ;
C 130 ; WX 500 ; N .notdef ; B 63 0 438 750 ;
C 131 ; WX 500 ; N .notdef ; B 63 0 438 750 ;
C 132 ; WX 500 ; N .notdef ; B 63 0 438 750 ;
C 133 ; WX 500 ; N .notdef ; B 63 0 438 750 ;
C 134 ; WX 500 ; N .notdef ; B 63 0 438 750 ;
C 135 ; WX 500 ; N .notdef ; B 63 0 438 750 ;
C 136 ; WX 500 ; N .notdef ; B 63 0 438 750 ;
C 137 ; WX 500 ; N .notdef ; B 63 0 438 750 ;
C 138 ; WX 500 ; N .notdef ; B 63 0 438 750 ;
C 139 ; WX 500 ; N .notdef ; B 63 0 438 750 ;
C 140 ; WX 500 ; N .notdef ; B 63 0 438 750 ;
C 141 ; WX 500 ; N .notdef ; B 63 0 438 750 ;
C 142 ; WX 500 ; N .notdef ; B 63 0 438 750 ;
C 143 ; WX 500 ; N .notdef ; B 63 0 438 750 ;
C 144 ; WX 500 ; N .notdef ; B 63 0 438 750 ;
C 145 ; WX 229 ; N quoteleft ; B 34 565 190 774 ;
C 146 ; WX 241 ; N quoteright ; B 44 512 201 721 ;
C 147 ; WX 440 ; N quotedblleft ; B 34 565 404 774 ;
C 148 ; WX 462 ; N quotedblright ; B 44 512 415 721 ;
C 149 ; WX 500 ; N .notdef ; B 63 0 438 750 ;
C 150 ; WX 531 ; N endash ; B 31 213 493 307 ;
C 151 ; WX 720 ; N emdash ; B 31 213 693 307 ;
C 152 ; WX 500 ; N .notdef ; B 63 0 438 750 ;
C 153 ; WX 500 ; N .notdef ; B 63 0 438 750 ;
C 154 ; WX 500 ; N .notdef ; B 63 0 438 750 ;
C 155 ; WX 500 ; N .notdef ; B 63 0 438 750 ;
C 156 ; WX 500 ; N .notdef ; B 63 0 438 750 ;
C 157 ; WX 500 ; N .notdef ; B 63 0 438 750 ;
C 158 ; WX 500 ; N .notdef ; B 63 0 438 750 ;
C 159 ; WX 500 ; N .notdef ; B 63 0 438 750 ;
C 160 ; WX 342 ; N nbspace ; B 0 0 0 124 ;
C 161 ; WX 500 ; N .notdef ; B 63 0 438 750 ;
C 162 ; WX 500 ; N .notdef ; B 63 0 438 750 ;
C 163 ; WX 500 ; N .notdef ; B 63 0 438 750 ;
C 164 ; WX 500 ; N .notdef ; B 63 0 438 750 ;
C 165 ; WX 500 ; N .notdef ; B 63 0 438 750 ;
C 166 ; WX 500 ; N .notdef ; B 63 0 438 750 ;
C 167 ; WX 500 ; N .notdef ; B 63 0 438 750 ;
C 168 ; WX 500 ; N .notdef ; B 63 0 438 750 ;
C 169 ; WX 224 ; N quotesingle ; B 65 504 158 727 ;
C 170 ; WX 440 ; N quotedblleft ; B 34 565 404 774 ;
C 171 ; WX 500 ; N .notdef ; B 63 0 438 750 ;
C 172 ; WX 500 ; N .notdef ; B 63 0 438 750 ;
C 173 ; WX 500 ; N .notdef ; B 63 0 438 750 ;
C 174 ; WX 500 ; N .notdef ; B 63 0 438 750 ;
C 175 ; WX 500 ; N .notdef ; B 63 0 438 750 ;
C 176 ; WX 500 ; N .notdef ; B 63 0 438 750 ;
C 177 ; WX 531 ; N endash ; B 31 213 493 307 ;
C 178 ; WX 500 ; N .notdef ; B 63 0 438 750 ;
C 179 ; WX 500 ; N .notdef ; B 63 0 438 750 ;
C 180 ; WX 494 ; N acute ; B 169 503 367 667 ;
C 181 ; WX 500 ; N .notdef ; B 63 0 438 750 ;
C 182 ; WX 500 ; N .notdef ; B 63 0 438 750 ;
C 183 ; WX 500 ; N .notdef ; B 63 0 438 750 ;
C 184 ; WX 500 ; N .notdef ; B 63 0 438 750 ;
C 185 ; WX 500 ; N .notdef ; B 63 0 438 750 ;
C 186 ; WX 462 ; N quotedblright ; B 44 512 415 721 ;
C 187 ; WX 500 ; N .notdef ; B 63 0 438 750 ;
C 188 ; WX 500 ; N .notdef ; B 63 0 438 750 ;
C 189 ; WX 500 ; N .notdef ; B 63 0 438 750 ;
C 190 ; WX 500 ; N .notdef ; B 63 0 438 750 ;
C 191 ; WX 500 ; N .notdef ; B 63 0 438 750 ;
C 192 ; WX 500 ; N .notdef ; B 63 0 438 750 ;
C 193 ; WX 507 ; N grave ; B 137 508 326 664 ;
C 194 ; WX 494 ; N acute ; B 169 503 367 667 ;
C 195 ; WX 500 ; N .notdef ; B 63 0 438 750 ;
C 196 ; WX 500 ; N .notdef ; B 63 0 438 750 ;
C 197 ; WX 500 ; N .notdef ; B 63 0 438 750 ;
C 198 ; WX 500 ; N .notdef ; B 63 0 438 750 ;
C 199 ; WX 500 ; N .notdef ; B 63 0 438 750 ;
C 200 ; WX 500 ; N .notdef ; B 63 0 438 750 ;
C 201 ; WX 500 ; N .notdef ; B 63 0 438 750 ;
C 202 ; WX 500 ; N .notdef ; B 63 0 438 750 ;
C 203 ; WX 500 ; N .notdef ; B 63 0 438 750 ;
C 204 ; WX 500 ; N .notdef ; B 63 0 438 750 ;
C 205 ; WX 500 ; N .notdef ; B 63 0 438 750 ;
C 206 ; WX 500 ; N .notdef ; B 63 0 438 750 ;
C 207 ; WX 500 ; N .notdef ; B 63 0 438 750 ;
C 208 ; WX 720 ; N emdash ; B 31 213 693 307 ;
C 209 ; WX 500 ; N .notdef ; B 63 0 438 750 ;
C 210 ; WX 500 ; N .notdef ; B 63 0 438 750 ;
C 211 ; WX 500 ; N .notdef ; B 63 0 438 750 ;
C 212 ; WX 500 ; N .notdef ; B 63 0 438 750 ;
C 213 ; WX 500 ; N .notdef ; B 63 0 438 750 ;
C 214 ; WX 500 ; N .notdef ; B 63 0 438 750 ;
C 215 ; WX 500 ; N .notdef ; B 63 0 438 750 ;
C 216 ; WX 500 ; N .notdef ; B 63 0 438 750 ;
C 217 ; WX 500 ; N .notdef ; B 63 0 438 750 ;
C 218 ; WX 500 ; N .notdef ; B 63 0 438 750 ;
C 219 ; WX 500 ; N .notdef ; B 63 0 438 750 ;
C 220 ; WX 500 ; N .notdef ; B 63 0 438 750 ;
C 221 ; WX 500 ; N .notdef ; B 63 0 438 750 ;
C 222 ; WX 500 ; N .notdef ; B 63 0 438 750 ;
C 223 ; WX 500 ; N .notdef ; B 63 0 438 750 ;
C 224 ; WX 521 ; N agrave ; B 17 -11 520 664 ;
C 225 ; WX 521 ; N aacute ; B 17 -11 520 667 ;
C 226 ; WX 521 ; N acircumflex ; B 17 -11 520 643 ;
C 227 ; WX 500 ; N .notdef ; B 63 0 438 750 ;
C 228 ; WX 521 ; N adieresis ; B 17 -11 520 634 ;
C 229 ; WX 500 ; N .notdef ; B 63 0 438 750 ;
C 230 ; WX 500 ; N .notdef ; B 63 0 438 750 ;
C 231 ; WX 500 ; N .notdef ; B 63 0 438 750 ;
C 232 ; WX 494 ; N egrave ; B 14 -17 477 664 ;
C 233 ; WX 494 ; N eacute ; B 14 -17 477 667 ;
C 234 ; WX 494 ; N ecircumflex ; B 14 -17 477 643 ;
C 235 ; WX 494 ; N edieresis ; B 14 -17 477 634 ;
C 236 ; WX 299 ; N igrave ; B 17 -4 287 664 ;
C 237 ; WX 299 ; N iacute ; B 17 -4 287 667 ;
C 238 ; WX 299 ; N icircumflex ; B 17 -4 287 643 ;
C 239 ; WX 299 ; N idieresis ; B 17 -4 287 634 ;
C 240 ; WX 500 ; N .notdef ; B 63 0 438 750 ;
C 241 ; WX 500 ; N .notdef ; B 63 0 438 750 ;
C 242 ; WX 528 ; N ograve ; B 12 -11 515 664 ;
C 243 ; WX 528 ; N oacute ; B 12 -11 515 667 ;
C 244 ; WX 528 ; N ocircumflex ; B 12 -11 515 643 ;
C 245 ; WX 500 ; N .notdef ; B 63 0 438 750 ;
C 246 ; WX 528 ; N odieresis ; B 12 -11 515 634 ;
C 247 ; WX 500 ; N .notdef ; B 63 0 438 750 ;
C 248 ; WX 500 ; N .notdef ; B 63 0 438 750 ;
C 249 ; WX 555 ; N ugrave ; B 9 -10 554 664 ;
C 250 ; WX 555 ; N uacute ; B 9 -10 554 667 ;
C 251 ; WX 555 ; N ucircumflex ; B 9 -10 554 643 ;
C 252 ; WX 555 ; N udieresis ; B 9 -10 554 634 ;
C 253 ; WX 500 ; N .notdef ; B 63 0 438 750 ;
C 254 ; WX 500 ; N .notdef ; B 63 0 438 750 ;
C 255 ; WX 500 ; N .notdef ; B 63 0 438 750 ;
C -1 ; WX 0 ; N .null ; B 72 -14 252 706 ;
C -1 ; WX 342 ; N CR ; B 72 -14 252 706 ;
EndCharMetrics
EndFontMetrics
